{
  "keysallowed": {
    "widget": ["juilayout", "head", "content", "resizer"],
    "section": ["head", "content"]
  },

  "juilayout": {
    "uid":"int",
    "scheme":["default", "test", "compact"],
    "addClass":"*",
    "removeClass":"*",
    "addFlags":"*",
    "removeFlags":"*",
    "opts":{
	  "paneClass":"*",
	  "applyDemoStyles":"bool",
	  "nix":"*"
	},
    "attr":{
	  "test1":"*",
	  "test2":"*",
	  "test3":"*"
	},
    "style":{
	  "height":"*",
	  "width":"*",
	  "margin":"*",
	  "border":"*",
	  "padding":"*",
	  "background":"*",
	  "position":["absolute", "fixed", "relative", "static"],
	  "top":"*",
	  "right":"*",
	  "bottom":"*",
	  "left":"*",
	  "overflow":["visible", "hidden", "scroll", "auto"],
	  "float": ["left", "right", "none"],
	  "clear": ["left", "right", "both", "none"]
	}
  },

  "resizer": {
    "opts":{
      "handles":    ["s", "e", "s,e", "s,e,se", "none"],
      "autoHide":   "bool",
      "disabled":   "bool",
      "height":     "int",
      "minHeight":  "int",
      "maxHeight":  "bool"
    }
  },

  "head": {
    "pane":["center", "north", "east", "south", "west"]
  },

  "content": {
    "caption":"*",
    "addClass":"*",
    "removeClass":"*",
    "addFlags":"*",
    "removeFlags":"*",
   "attr":{
	  "test1":"*",
	  "test2":"*",
	  "test3":"*"
	},
    "style":{
	  "height":"*",
	  "width":"*",
	  "margin":"*",
	  "border":"*",
	  "padding":"*",
	  "background":"*",
	  "position":["absolute", "fixed", "relative", "static"],
	  "top":"*",
	  "right":"*",
	  "bottom":"*",
	  "left":"*",
	  "overflow":["visible", "hidden", "scroll", "auto"],
	  "float": ["left", "right", "none"],
	  "clear": ["left", "right", "both", "none"]
	}
  }
}